tb_cpu_test_all.vcd
$date
	Wed Apr 22 10:20:44 2026
$end
$version
	Icarus Verilog
$end
$timescale
	1ps
$end
$scope module tb_cpu_test_all $end
$var wire 8 ! leds [7:0] $end
$var reg 1 " clk $end
$var reg 1 # modeRead $end
$var reg 1 $ rst $end
$var reg 1 % run_halt $end
$var reg 1 & single_step $end
$var reg 4 ' valin [3:0] $end
$var integer 32 ( fail_cnt [31:0] $end
$var integer 32 ) pass_cnt [31:0] $end
$scope module DUT $end
$var wire 1 " clk $end
$var wire 1 # modeRead $end
$var wire 1 $ rst $end
$var wire 1 % run_halt $end
$var wire 1 & single_step $end
$var wire 4 * valin [3:0] $end
$var wire 1 + slow_clk $end
$var wire 16 , rom_data [15:0] $end
$var wire 16 - reg_memOut [15:0] $end
$var wire 16 . regB_data [15:0] $end
$var wire 16 / regA_data [15:0] $end
$var wire 16 0 mem_rd_data [15:0] $end
$var wire 8 1 leds [7:0] $end
$var wire 4 2 dec_srcB [3:0] $end
$var wire 4 3 dec_srcA [3:0] $end
$var wire 1 4 dec_reg_write $end
$var wire 1 5 dec_needs_imm $end
$var wire 1 6 dec_mem_write $end
$var wire 1 7 dec_mem_read $end
$var wire 1 8 dec_is_lui $end
$var wire 1 9 dec_is_jump $end
$var wire 1 : dec_is_jal $end
$var wire 1 ; dec_is_branch $end
$var wire 16 < dec_imm [15:0] $end
$var wire 4 = dec_grp [3:0] $end
$var wire 4 > dec_dest [3:0] $end
$var wire 3 ? dec_branch_type [2:0] $end
$var wire 4 @ dec_alu_op [3:0] $end
$var wire 16 A alu_result_w [15:0] $end
$var wire 4 B alu_flags_w [3:0] $end
$var parameter 3 C DECODE $end
$var parameter 3 D EXECUTE $end
$var parameter 3 E FETCH $end
$var parameter 3 F FETCH2 $end
$var parameter 3 G HALT $end
$var parameter 3 H MEMORY $end
$var parameter 32 I SIM_MODE $end
$var parameter 3 J WRITEBACK $end
$var reg 16 K IMM_WORD [15:0] $end
$var reg 16 L IR [15:0] $end
$var reg 6 M PC [5:0] $end
$var reg 1 N branch_taken $end
$var reg 4 O d_alu_op [3:0] $end
$var reg 3 P d_branch_type [2:0] $end
$var reg 4 Q d_dest [3:0] $end
$var reg 4 R d_grp [3:0] $end
$var reg 16 S d_imm [15:0] $end
$var reg 1 T d_is_branch $end
$var reg 1 U d_is_jal $end
$var reg 1 V d_is_jump $end
$var reg 1 W d_is_lui $end
$var reg 1 X d_mem_read $end
$var reg 1 Y d_mem_write $end
$var reg 1 Z d_reg_write $end
$var reg 4 [ d_srcA [3:0] $end
$var reg 4 \ d_srcB [3:0] $end
$var reg 4 ] ex_flags [3:0] $end
$var reg 16 ^ ex_result [15:0] $end
$var reg 6 _ ram_addr [5:0] $end
$var reg 16 ` ram_wr_data [15:0] $end
$var reg 1 a ram_wr_en $end
$var reg 1 b rf_wr_en $end
$var reg 1 c rh_prev $end
$var reg 1 d running $end
$var reg 1 e ss_prev $end
$var reg 3 f state [2:0] $end
$var reg 16 g store_data [15:0] $end
$var reg 16 h wb_data [15:0] $end
$scope module ALU $end
$var wire 16 i B [15:0] $end
$var wire 4 j opcode [3:0] $end
$var wire 1 k ov_add $end
$var wire 1 l ov_sub $end
$var wire 17 m sum_sub [16:0] $end
$var wire 17 n sum_add [16:0] $end
$var wire 4 o flags [3:0] $end
$var wire 1 p carry_sub $end
$var wire 1 q carry_add $end
$var wire 16 r A [15:0] $end
$var parameter 4 s ADD $end
$var parameter 4 t AND $end
$var parameter 4 u MAX $end
$var parameter 4 v MIN $end
$var parameter 4 w MUL $end
$var parameter 4 x NOR $end
$var parameter 4 y OR $end
$var parameter 4 z PASS $end
$var parameter 4 { SLL $end
$var parameter 4 | SLT $end
$var parameter 4 } SLTU $end
$var parameter 4 ~ SRA $end
$var parameter 4 !" SRL $end
$var parameter 4 "" SUB $end
$var parameter 4 #" XNOR $end
$var parameter 4 $" XOR $end
$var reg 16 %" result [15:0] $end
$upscope $end
$scope module CLK_DIV $end
$var wire 1 " clk $end
$var wire 1 + clkout $end
$var parameter 32 &" SIM_MODE $end
$scope begin genblk1 $end
$upscope $end
$upscope $end
$scope module DEC $end
$var wire 16 '" imm_out [15:0] $end
$var wire 16 (" imm_word [15:0] $end
$var wire 16 )" instr [15:0] $end
$var wire 1 5 needs_imm $end
$var wire 1 4 reg_write $end
$var wire 4 *" srcB_addr [3:0] $end
$var wire 4 +" srcA_addr [3:0] $end
$var wire 1 6 mem_write $end
$var wire 1 7 mem_read $end
$var wire 1 8 is_lui $end
$var wire 1 9 is_jump $end
$var wire 1 : is_jal $end
$var wire 1 ; is_branch $end
$var wire 4 ," grp [3:0] $end
$var wire 4 -" dest [3:0] $end
$var wire 3 ." branch_type [2:0] $end
$var wire 4 /" alu_op [3:0] $end
$upscope $end
$scope module DRAM $end
$var wire 6 0" addr [5:0] $end
$var wire 1 + clk $end
$var wire 16 1" rd_data [15:0] $end
$var wire 16 2" wr_data [15:0] $end
$var wire 1 a wr_en $end
$var integer 32 3" i [31:0] $end
$upscope $end
$scope module RF $end
$var wire 1 + clk $end
$var wire 1 # modeRead $end
$var wire 16 4" regA [15:0] $end
$var wire 16 5" regB [15:0] $end
$var wire 1 $ rst $end
$var wire 4 6" srcA_addr [3:0] $end
$var wire 4 7" srcB_addr [3:0] $end
$var wire 4 8" valin [3:0] $end
$var wire 4 9" wr_addr [3:0] $end
$var wire 16 :" wr_data [15:0] $end
$var wire 1 b wr_en $end
$var reg 16 ;" memOut [15:0] $end
$var integer 32 <" i [31:0] $end
$upscope $end
$scope module ROM $end
$var wire 6 =" addr [5:0] $end
$var reg 16 >" data [15:0] $end
$var integer 32 ?" i [31:0] $end
$upscope $end
$upscope $end
$scope task check_mem $end
$var reg 6 @" addr [5:0] $end
$var reg 16 A" expected [15:0] $end
$var reg 16 B" got [15:0] $end
$var reg 256 C" tag [255:0] $end
$upscope $end
$scope task check_reg $end
$var reg 16 D" expected [15:0] $end
$var reg 16 E" got [15:0] $end
$var reg 4 F" rnum [3:0] $end
$var reg 256 G" tag [255:0] $end
$upscope $end
$upscope $end
$enddefinitions $end
$comment Show the parameter values. $end
$dumpall
b1 &"
b100 $"
b1101 #"
b1 ""
b110 !"
b111 ~
b1001 }
b1000 |
b101 {
b1011 z
b11 y
b1100 x
b1010 w
b1110 v
b1111 u
b10 t
b0 s
b101 J
b1 I
b100 H
b110 G
b1 F
b0 E
b11 D
b10 C
$end
#0
$dumpvars
bx G"
bx F"
bx E"
bx D"
bx C"
bx B"
bx A"
bx @"
b1000000 ?"
b1000100000000 >"
b0 ="
bx <"
bx ;"
b0 :"
bx 9"
b0 8"
b0 7"
b0 6"
bx 5"
bx 4"
b1000000 3"
bx 2"
bx 1"
bx 0"
b0 /"
b0 ."
b0 -"
b0 ,"
b0 +"
b0 *"
b0 )"
b0 ("
b0 '"
bx %"
bx r
xq
xp
bx o
bx n
bx m
xl
xk
bx j
bx i
b0 h
b0 g
b0 f
0e
0d
0c
0b
0a
bx `
bx _
b0 ^
b0 ]
bx \
bx [
xZ
xY
xX
xW
xV
xU
xT
bx S
bx R
bx Q
bx P
bx O
0N
b0 M
b0 L
b0 K
bx B
bx A
b0 @
b0 ?
b0 >
b0 =
b0 <
0;
0:
09
08
07
06
05
14
b0 3
b0 2
b0 1
bx 0
bx /
bx .
bx -
b1000100000000 ,
0+
b0 *
b0 )
b0 (
b0 '
0&
0%
1$
0#
0"
b0 !
$end
#5000
b0x1x B
b0x1x o
b0 A
b0 %"
b0 /
b0 r
b0 4"
b0 .
b0 5"
b10000 <"
1+
1"
#10000
0+
0"
#15000
b10000 <"
1+
1"
#20000
0+
0"
#25000
b10000 <"
1+
1"
#30000
0+
0"
#35000
b10000 <"
1+
1"
#40000
0$
0+
0"
#45000
1+
1"
#46000
1%
#50000
0+
0"
#55000
1d
1c
1+
1"
#56000
0%
#60000
0+
0"
#65000
15
b101 ,
b101 >"
b1 =
b1 ,"
b1 >
b1 -"
b1 ?
b1 ."
b1 f
b1 M
b1 ="
b1000100000000 L
b1000100000000 )"
0c
1+
1"
#70000
0+
0"
#75000
b1001000000000 ,
b1001000000000 >"
b10 f
b10 M
b10 ="
b101 <
b101 '"
b101 K
b101 ("
1+
1"
#80000
0+
0"
#85000
0k
0l
0p
b1111111111111011 m
0q
b101 n
1N
b0 B
b0 o
b101 A
b101 %"
b101 i
b11 f
b1 P
0W
0U
0V
0T
0Y
0X
1Z
b0 O
b0 j
b101 S
b0 \
b0 [
b1 Q
b1 9"
b1 R
1+
1"
#90000
0+
0"
#95000
b101 !
b101 1
b100 f
b101 ^
1+
1"
#100000
0+
0"
#105000
b101 f
1+
1"
#110000
0+
0"
#115000
b0 f
1b
b101 h
b101 :"
1+
1"
#120000
0+
0"
#125000
b11 ,
b11 >"
b10 >
b10 -"
b10 ?
b10 ."
b1 f
b11 M
b11 ="
b1001000000000 L
b1001000000000 )"
0b
1+
1"
#130000
0+
0"
#135000
b1100010010 ,
b1100010010 >"
b10 f
b100 M
b100 ="
b11 <
b11 '"
b11 K
b11 ("
1+
1"
#140000
0+
0"
#145000
b1111111111111101 m
b11 A
b11 %"
0N
b11 n
b11 i
b11 f
b10 P
b11 S
b10 Q
b10 9"
1+
1"
#150000
0+
0"
#155000
b11 !
b11 1
b100 f
b11 ^
1+
1"
#160000
0+
0"
#165000
b101 f
1+
1"
#170000
0+
0"
#175000
b0 f
1b
b11 h
b11 :"
1+
1"
#180000
0+
0"
#185000
1p
b1000 A
b1000 %"
b11 @
b11 /"
b10000000000000010 m
b1000 n
b101 /
b101 r
b101 4"
b1 3
b1 +"
b1 6"
b0 ,
b0 >"
b0 =
b0 ,"
b11 >
b11 -"
b11 .
b11 5"
b10 2
b10 *"
b10 7"
b11 ?
b11 ."
b1 f
b101 M
b101 ="
b1100010010 L
b1100010010 )"
0b
1+
1"
#190000
0+
0"
#195000
b0 @
b0 /"
b10000010010 ,
b10000010010 >"
b10 f
b110 M
b110 ="
b0 <
b0 '"
b0 K
b0 ("
1+
1"
#200000
0+
0"
#205000
b10000000000000010 m
b1000 A
b1000 %"
1N
b1000 n
b11 i
b11 f
b11 P
b0 S
b10 \
b1 [
b11 Q
b11 9"
b0 R
1+
1"
#210000
0+
0"
#215000
b1000 !
b1000 1
b100 f
b1000 ^
1+
1"
#220000
0+
0"
#225000
b101 f
1+
1"
#230000
0+
0"
#235000
b0 f
1b
b1000 h
b1000 :"
1+
1"
#240000
0+
0"
#245000
b1 ,
b1 >"
b100 >
b100 -"
b100 ?
b100 ."
b1 f
b111 M
b111 ="
b10000010010 L
b10000010010 )"
0b
1+
1"
#250000
0+
0"
#255000
b1 @
b1 /"
b10100010010 ,
b10100010010 >"
b10 f
b1000 M
b1000 ="
b1 <
b1 '"
b1 K
b1 ("
1+
1"
#260000
0+
0"
#265000
b10 A
b10 %"
b100 B
b100 o
b11 f
b100 P
b1 O
b1 j
b1 S
b100 Q
b100 9"
1+
1"
#270000
0+
0"
#275000
b10 !
b10 1
0N
b100 f
b100 ]
b10 ^
1+
1"
#280000
0+
0"
#285000
b101 f
1+
1"
#290000
0+
0"
#295000
b0 f
1b
b10 h
b10 :"
1+
1"
#300000
0+
0"
#305000
b10 ,
b10 >"
b101 >
b101 -"
b101 ?
b101 ."
b1 f
b1001 M
b1001 ="
b10100010010 L
b10100010010 )"
0b
1+
1"
#310000
0+
0"
#315000
b10 @
b10 /"
b11000010010 ,
b11000010010 >"
b10 f
b1010 M
b1010 ="
b10 <
b10 '"
b10 K
b10 ("
1+
1"
#320000
0+
0"
#325000
b0 B
b0 o
1N
b1 A
b1 %"
b11 f
b101 P
b10 O
b10 j
b10 S
b101 Q
b101 9"
1+
1"
#330000
0+
0"
#335000
b1 !
b1 1
0N
b100 f
b0 ]
b1 ^
1+
1"
#340000
0+
0"
#345000
b101 f
1+
1"
#350000
0+
0"
#355000
b0 f
1b
b1 h
b1 :"
1+
1"
#360000
0+
0"
#365000
b11 ,
b11 >"
b110 >
b110 -"
b110 ?
b110 ."
b1 f
b1011 M
b1011 ="
b11000010010 L
b11000010010 )"
0b
1+
1"
#370000
0+
0"
#375000
b11 @
b11 /"
b11100010010 ,
b11100010010 >"
b10 f
b1100 M
b1100 ="
b11 <
b11 '"
b11 K
b11 ("
1+
1"
#380000
0+
0"
#385000
b111 A
b111 %"
b11 f
b110 P
b11 O
b11 j
b11 S
b110 Q
b110 9"
1+
1"
#390000
0+
0"
#395000
b111 !
b111 1
b100 f
b111 ^
1+
1"
#400000
0+
0"
#405000
b101 f
1+
1"
#410000
0+
0"
#415000
b0 f
1b
b111 h
b111 :"
1+
1"
#420000
0+
0"
#425000
b100 ,
b100 >"
b111 >
b111 -"
b111 ?
b111 ."
b1 f
b1101 M
b1101 ="
b11100010010 L
b11100010010 )"
0b
1+
1"
#430000
0+
0"
#435000
b100 @
b100 /"
b100000100001 ,
b100000100001 >"
b10 f
b1110 M
b1110 ="
b100 <
b100 '"
b100 K
b100 ("
1+
1"
#440000
0+
0"
#445000
b110 A
b110 %"
b11 f
b111 P
b100 O
b100 j
b100 S
b111 Q
b111 9"
1+
1"
#450000
0+
0"
#455000
b110 !
b110 1
b100 f
b110 ^
1+
1"
#460000
0+
0"
#465000
b101 f
1+
1"
#470000
0+
0"
#475000
b0 f
1b
b110 h
b110 :"
1+
1"
#480000
0+
0"
#485000
0p
b1111111111111110 m
b11 /
b11 r
b11 4"
b10 3
b10 +"
b10 6"
b1000 n
b101 i
b1000 ,
b1000 >"
b1000 >
b1000 -"
b101 .
b101 5"
b1 2
b1 *"
b1 7"
b0 ?
b0 ."
b1 f
b1111 M
b1111 ="
b100000100001 L
b100000100001 )"
0b
1+
1"
#490000
0+
0"
#495000
b1000 @
b1000 /"
b100100010010 ,
b100100010010 >"
b10 f
b10000 M
b10000 ="
b1000 <
b1000 '"
b1000 K
b1000 ("
1+
1"
#500000
0+
0"
#505000
b1 A
b1 %"
b11 f
b0 P
b1000 O
b1000 j
b1000 S
b1 \
b10 [
b1000 Q
b1000 9"
1+
1"
#510000
0+
0"
#515000
b1 !
b1 1
b100 f
b1 ^
1+
1"
#520000
0+
0"
#525000
b101 f
1+
1"
#530000
0+
0"
#535000
b0 f
1b
b1 h
b1 :"
1+
1"
#540000
0+
0"
#545000
1p
b10 B
b10 o
b0 A
b0 %"
b10000000000000010 m
b101 /
b101 r
b101 4"
b1 3
b1 +"
b1 6"
b1000 n
b11 i
b1010 ,
b1010 >"
b1001 >
b1001 -"
b11 .
b11 5"
b10 2
b10 *"
b10 7"
b1 ?
b1 ."
b1 f
b10001 M
b10001 ="
b100100010010 L
b100100010010 )"
0b
1+
1"
#550000
0+
0"
#555000
b1010 @
b1010 /"
b1101001010001 ,
b1101001010001 >"
b10 f
b10010 M
b10010 ="
b1010 <
b1010 '"
b1010 K
b1010 ("
1+
1"
#560000
0+
0"
#565000
1N
b0 B
b0 o
b1111 A
b1111 %"
b11 f
b1 P
b1010 O
b1010 j
b1010 S
b10 \
b1 [
b1001 Q
b1001 9"
1+
1"
#570000
0+
0"
#575000
b1111 !
b1111 1
b100 f
b1111 ^
1+
1"
#580000
0+
0"
#585000
b101 f
1+
1"
#590000
0+
0"
#595000
b0 f
1b
b1111 h
b1111 :"
1+
1"
#600000
0+
0"
#605000
15
b10000000000000000 m
b11001 A
b11001 %"
b101 @
b101 /"
b1010 n
b101 i
b10 ,
b10 >"
b1 =
b1 ,"
b1010 >
b1010 -"
b101 .
b101 5"
b1 2
b1 *"
b1 7"
b10 ?
b10 ."
b1 f
b10011 M
b10011 ="
b1101001010001 L
b1101001010001 )"
0b
1+
1"
#610000
0+
0"
#615000
b1101101101010 ,
b1101101101010 >"
b10 f
b10100 M
b10100 ="
b10 <
b10 '"
b10 K
b10 ("
1+
1"
#620000
0+
0"
#625000
b10000000000000011 m
b111 n
b10 i
0N
b10100 A
b10100 %"
b11 f
b10 P
b101 O
b101 j
b10 S
b1 \
b1010 Q
b1010 9"
b1 R
1+
1"
#630000
0+
0"
#635000
b10100 !
b10100 1
b100 f
b10100 ^
1+
1"
#640000
0+
0"
#645000
b101 f
1+
1"
#650000
0+
0"
#655000
b0 f
1b
b10100 h
b10100 :"
1+
1"
#660000
0+
0"
#665000
b1010000 A
b1010000 %"
b110 @
b110 /"
b10000000000010010 m
b10110 n
b10100 /
b10100 r
b10100 4"
b1010 3
b1010 +"
b1010 6"
b1 ,
b1 >"
b1011 >
b1011 -"
b10100 .
b10100 5"
b1010 2
b1010 *"
b1010 7"
b11 ?
b11 ."
b1 f
b10101 M
b10101 ="
b1101101101010 L
b1101101101010 )"
0b
1+
1"
#670000
0+
0"
#675000
b11001100000000 ,
b11001100000000 >"
b10 f
b10110 M
b10110 ="
b1 <
b1 '"
b1 K
b1 ("
1+
1"
#680000
0+
0"
#685000
b10000000000010011 m
1N
b1010 A
b1010 %"
b10101 n
b1 i
b11 f
b11 P
b110 O
b110 j
b1 S
b1010 \
b1010 [
b1011 Q
b1011 9"
1+
1"
#690000
0+
0"
#695000
b1010 !
b1010 1
b100 f
b1010 ^
1+
1"
#700000
0+
0"
#705000
b101 f
1+
1"
#710000
0+
0"
#715000
b0 f
1b
b1010 h
b1010 :"
1+
1"
#720000
0+
0"
#725000
04
0p
b10 B
b10 o
b0 A
b0 %"
b0 @
b0 /"
b1111111111111111 m
b1 n
b0 /
b0 r
b0 4"
b0 3
b0 +"
b0 6"
b0 ,
b0 >"
16
b11 =
b11 ,"
b11 >
b11 -"
b0 .
b0 5"
b0 2
b0 *"
b0 7"
b1 f
b10111 M
b10111 ="
b11001100000000 L
b11001100000000 )"
0b
1+
1"
#730000
0+
0"
#735000
b11010000000000 ,
b11010000000000 >"
b10 f
b11000 M
b11000 ="
b0 <
b0 '"
b0 K
b0 ("
1+
1"
#740000
0+
0"
#745000
1p
b10000000000000000 m
b0 n
b0 i
b11 f
1Y
0Z
b0 O
b0 j
b0 S
b0 \
b0 [
b11 Q
b11 9"
b11 R
1+
1"
#750000
0+
0"
#755000
b0 !
b0 1
b100 f
b1000 g
b10 ]
b0 ^
1+
1"
#760000
0+
0"
#765000
b101 f
b1000 `
b1000 2"
b0 0
b0 1"
b0 _
b0 0"
1a
1+
1"
#770000
0+
0"
#775000
b0 f
b0 h
b0 :"
0a
b1000 0
b1000 1"
1+
1"
#780000
0+
0"
#785000
b1 ,
b1 >"
b100 >
b100 -"
b100 ?
b100 ."
b1 f
b11001 M
b11001 ="
b11010000000000 L
b11010000000000 )"
1+
1"
#790000
0+
0"
#795000
b10110000000000 ,
b10110000000000 >"
b10 f
b11010 M
b11010 ="
b1 <
b1 '"
b1 K
b1 ("
1+
1"
#800000
0+
0"
#805000
0p
b1111111111111111 m
b0 B
b0 o
b1 A
b1 %"
b1 n
b1 i
b11 f
b100 P
b1 S
b100 Q
b100 9"
1+
1"
#810000
0+
0"
#815000
b1 !
b1 1
b100 f
b10 g
b0 ]
b1 ^
1+
1"
#820000
0+
0"
#825000
b101 f
b10 `
b10 2"
b0 0
b0 1"
b1 _
b1 0"
1a
1+
1"
#830000
0+
0"
#835000
b0 f
b1 h
b1 :"
0a
b10 0
b10 1"
1+
1"
#840000
0+
0"
#845000
15
14
b0 ,
b0 >"
17
06
b10 =
b10 ,"
b1100 >
b1100 -"
b1 f
b11011 M
b11011 ="
b10110000000000 L
b10110000000000 )"
1+
1"
#850000
0+
0"
#855000
b10110100000000 ,
b10110100000000 >"
b10 f
b11100 M
b11100 ="
b0 <
b0 '"
b0 K
b0 ("
1+
1"
#860000
0+
0"
#865000
1p
b10000000000000000 m
b10 B
b10 o
b0 A
b0 %"
b0 n
b0 i
b11 f
0Y
1X
1Z
b0 S
b1100 Q
b1100 9"
b10 R
1+
1"
#870000
0+
0"
#875000
b0 !
b0 1
b100 f
b0 g
b10 ]
b0 ^
1+
1"
#880000
0+
0"
#885000
b101 f
b1000 0
b1000 1"
b0 _
b0 0"
1+
1"
#890000
0+
0"
#895000
b0 f
1b
b1000 h
b1000 :"
1+
1"
#900000
0+
0"
#905000
b1 ,
b1 >"
b1101 >
b1101 -"
b101 ?
b101 ."
b1 f
b11101 M
b11101 ="
b10110100000000 L
b10110100000000 )"
0b
1+
1"
#910000
0+
0"
#915000
b100000011000011 ,
b100000011000011 >"
b10 f
b11110 M
b11110 ="
b1 <
b1 '"
b1 K
b1 ("
1+
1"
#920000
0+
0"
#925000
0p
b1111111111111111 m
b0 B
b0 o
b1 A
b1 %"
0N
b1 n
b1 i
b11 f
b101 P
b1 S
b1101 Q
b1101 9"
1+
1"
#930000
0+
0"
#935000
b1 !
b1 1
b100 f
b0 ]
b1 ^
1+
1"
#940000
0+
0"
#945000
b101 f
b10 0
b10 1"
b1 _
b1 0"
1+
1"
#950000
0+
0"
#955000
b0 f
1b
b10 h
b10 :"
1+
1"
#960000
0+
0"
#965000
b1 @
b1 /"
04
1p
b1001 A
b1001 %"
b10000000000000111 m
b1001 n
b1000 /
b1000 r
b1000 4"
b1100 3
b1100 +"
b1100 6"
b10 ,
b10 >"
07
1;
b100 =
b100 ,"
b0 >
b0 -"
b1000 .
b1000 5"
b11 2
b11 *"
b11 7"
b0 ?
b0 ."
b1 f
b11111 M
b11111 ="
b100000011000011 L
b100000011000011 )"
0b
1+
1"
#970000
0+
0"
#975000
b1111000000000 ,
b1111000000000 >"
b10 f
b100000 M
b100000 ="
b10 <
b10 '"
b10 K
b10 ("
1+
1"
#980000
0+
0"
#985000
b10000000000000000 m
b0 A
b0 %"
b110 B
b110 o
b10000 n
b1000 i
b11 f
b0 P
1T
0X
0Z
b1 O
b1 j
b10 S
b11 \
b1100 [
b0 Q
b0 9"
b100 R
1+
1"
#990000
0+
0"
#995000
b0 !
b0 1
1N
b100 f
b110 ]
b0 ^
1+
1"
#1000000
0+
0"
#1005000
b101 f
b100010 M
b100010 ="
1+
1"
#1010000
0+
0"
#1015000
b0 f
b0 h
b0 :"
1+
1"
#1020000
0+
0"
#1025000
15
14
b0 @
b0 /"
b110 B
b110 o
b0 A
b0 %"
b10000000000000000 m
b0 /
b0 r
b0 4"
b0 3
b0 +"
b0 6"
b0 n
b0 i
b101010 ,
b101010 >"
0;
b1 =
b1 ,"
b1110 >
b1110 -"
b0 .
b0 5"
b0 2
b0 *"
b0 7"
b110 ?
b110 ."
b1 f
b100011 M
b100011 ="
b1111000000000 L
b1111000000000 )"
1+
1"
#1030000
0+
0"
#1035000
b110111100000000 ,
b110111100000000 >"
b10 f
b100100 M
b100100 ="
b101010 <
b101010 '"
b101010 K
b101010 ("
1+
1"
#1040000
0+
0"
#1045000
0p
b1111111111010110 m
b101010 A
b101010 %"
b101010 n
b101010 i
0N
b0 B
b0 o
b11 f
b110 P
0T
1Z
b0 O
b0 j
b101010 S
b0 \
b0 [
b1110 Q
b1110 9"
b1 R
1+
1"
#1050000
0+
0"
#1055000
b101010 !
b101010 1
b100 f
b0 ]
b101010 ^
1+
1"
#1060000
0+
0"
#1065000
b101 f
1+
1"
#1070000
0+
0"
#1075000
b0 f
1b
b101010 h
b101010 :"
1+
1"
#1080000
0+
0"
#1085000
b1011 @
b1011 /"
b100 ,
b100 >"
1:
b110 =
b110 ,"
b1111 >
b1111 -"
b111 ?
b111 ."
b1 f
b100101 M
b100101 ="
b110111100000000 L
b110111100000000 )"
0b
1+
1"
#1090000
0+
0"
#1095000
b1000100000000 ,
b1000100000000 >"
b10 f
b100110 M
b100110 ="
b100 <
b100 '"
b100 K
b100 ("
1+
1"
#1100000
0+
0"
#1105000
1p
b10 B
b10 o
b10000000000000000 m
b0 A
b0 %"
b0 n
b0 i
b11 f
b111 P
1U
b1011 O
b1011 j
b100 S
b1111 Q
b1111 9"
b110 R
1+
1"
#1110000
0+
0"
#1115000
b0 !
b0 1
b1001000000000 ,
b1001000000000 >"
b101 f
b101010 M
b101010 ="
b100110 h
b100110 :"
b10 ]
b0 ^
1+
1"
#1120000
0+
0"
#1125000
b0 f
1b
1+
1"
#1130000
0+
0"
#1135000
15
b0 @
b0 /"
14
b1100100 ,
b1100100 >"
0:
b1 =
b1 ,"
b10 >
b10 -"
b10 ?
b10 ."
b1 f
b101011 M
b101011 ="
b1001000000000 L
b1001000000000 )"
0b
1+
1"
#1140000
0+
0"
#1145000
b0 ,
b0 >"
b10 f
b101100 M
b101100 ="
b1100100 <
b1100100 '"
b1100100 K
b1100100 ("
1+
1"
#1150000
0+
0"
#1155000
0p
b1111111110011100 m
b0 B
b0 o
b1100100 A
b1100100 %"
b1100100 n
b1100100 i
b11 f
b10 P
0U
b0 O
b0 j
b1100100 S
b10 Q
b10 9"
b1 R
1+
1"
#1160000
0+
0"
#1165000
b1100100 !
b1100100 1
b100 f
b11 g
b0 ]
b1100100 ^
1+
1"
#1170000
0+
0"
#1175000
b101 f
1+
1"
#1180000
0+
0"
#1185000
b0 f
1b
b1100100 h
b1100100 :"
1+
1"
#1190000
0+
0"
#1195000
05
b100 @
b100 /"
b0 =
b0 ,"
b0 >
b0 -"
b0 ?
b0 ."
b1 f
b101101 M
b101101 ="
b0 L
b0 )"
0b
1+
1"
#1200000
0+
0"
#1205000
b0 @
b0 /"
b10 f
b0 <
b0 '"
b0 K
b0 ("
1+
1"
#1210000
0+
0"
#1215000
1p
b10000000000000000 m
b10 B
b10 o
b0 A
b0 %"
b0 n
b0 i
b11 f
b0 P
b0 S
b0 Q
b0 9"
b0 R
1+
1"
#1220000
0+
0"
#1225000
b0 !
b0 1
1N
b100 f
b0 g
b10 ]
b0 ^
1+
1"
#1230000
0+
0"
#1235000
b101 f
1+
1"
#1240000
0+
0"
#1245000
b0 f
1b
b0 h
b0 :"
1+
1"
#1250000
0+
0"
#1255000
b1 f
b101110 M
b101110 ="
0b
1+
1"
#1260000
0+
0"
#1265000
b10 f
1+
1"
#1270000
0+
0"
#1275000
b11 f
1+
1"
#1280000
0+
0"
#1285000
b100 f
1+
1"
#1290000
0+
0"
#1295000
b101 f
1+
1"
#1300000
0+
0"
#1305000
b0 f
1b
1+
1"
#1310000
0+
0"
#1315000
b1 f
b101111 M
b101111 ="
0b
1+
1"
#1320000
0+
0"
#1325000
b10 f
1+
1"
#1330000
0+
0"
#1335000
b11 f
1+
1"
#1340000
0+
0"
#1345000
b100 f
1+
1"
#1350000
0+
0"
#1355000
b101 f
1+
1"
#1360000
0+
0"
#1365000
b0 f
1b
1+
1"
#1370000
0+
0"
#1375000
b1 f
b110000 M
b110000 ="
0b
1+
1"
#1380000
0+
0"
#1385000
b10 f
1+
1"
#1390000
0+
0"
#1395000
b11 f
1+
1"
#1400000
0+
0"
#1405000
b100 f
1+
1"
#1410000
0+
0"
#1415000
b101 f
1+
1"
#1420000
0+
0"
#1425000
b0 f
1b
1+
1"
#1430000
0+
0"
#1435000
b1 f
b110001 M
b110001 ="
0b
1+
1"
#1440000
0+
0"
#1445000
b10 f
1+
1"
#1450000
0+
0"
#1455000
b11 f
1+
1"
#1460000
0+
0"
#1465000
b100 f
1+
1"
#1470000
0+
0"
#1475000
b101 f
1+
1"
#1480000
0+
0"
#1485000
b0 f
1b
1+
1"
#1490000
0+
0"
#1495000
b1 f
b110010 M
b110010 ="
0b
1+
1"
#1500000
0+
0"
#1505000
b10 f
1+
1"
#1510000
0+
0"
#1515000
b11 f
1+
1"
#1520000
0+
0"
#1525000
b100 f
1+
1"
#1530000
0+
0"
#1535000
b101 f
1+
1"
#1540000
0+
0"
#1545000
b0 f
1b
1+
1"
#1550000
0+
0"
#1555000
b1 f
b110011 M
b110011 ="
0b
1+
1"
#1560000
0+
0"
#1565000
b10 f
1+
1"
#1570000
0+
0"
#1575000
b11 f
1+
1"
#1580000
0+
0"
#1585000
b100 f
1+
1"
#1590000
0+
0"
#1595000
b101 f
1+
1"
#1600000
0+
0"
#1605000
b0 f
1b
1+
1"
#1610000
0+
0"
#1615000
b1 f
b110100 M
b110100 ="
0b
1+
1"
#1620000
0+
0"
#1625000
b10 f
1+
1"
#1630000
0+
0"
#1635000
b11 f
1+
1"
#1640000
0+
0"
#1645000
b100 f
1+
1"
#1650000
0+
0"
#1655000
b101 f
1+
1"
#1660000
0+
0"
#1665000
b0 f
1b
1+
1"
#1670000
0+
0"
#1675000
b1 f
b110101 M
b110101 ="
0b
1+
1"
#1680000
0+
0"
#1685000
b10 f
1+
1"
#1690000
0+
0"
#1695000
b11 f
1+
1"
#1700000
0+
0"
#1705000
b100 f
1+
1"
#1710000
0+
0"
#1715000
b101 f
1+
1"
#1720000
0+
0"
#1725000
b0 f
1b
1+
1"
#1730000
0+
0"
#1735000
b1 f
b110110 M
b110110 ="
0b
1+
1"
#1740000
0+
0"
#1745000
b10 f
1+
1"
#1750000
0+
0"
#1755000
b11 f
1+
1"
#1760000
0+
0"
#1765000
b100 f
1+
1"
#1770000
0+
0"
#1775000
b101 f
1+
1"
#1780000
0+
0"
#1785000
b0 f
1b
1+
1"
#1790000
0+
0"
#1795000
b1 f
b110111 M
b110111 ="
0b
1+
1"
#1800000
0+
0"
#1805000
b10 f
1+
1"
#1810000
0+
0"
#1815000
b11 f
1+
1"
#1820000
0+
0"
#1825000
b100 f
1+
1"
#1830000
0+
0"
#1835000
b101 f
1+
1"
#1840000
0+
0"
#1845000
b0 f
1b
1+
1"
#1850000
0+
0"
#1855000
b1 f
b111000 M
b111000 ="
0b
1+
1"
#1860000
0+
0"
#1865000
b10 f
1+
1"
#1870000
0+
0"
#1875000
b11 f
1+
1"
#1880000
0+
0"
#1885000
b100 f
1+
1"
#1890000
0+
0"
#1895000
b101 f
1+
1"
#1900000
0+
0"
#1905000
b0 f
1b
1+
1"
#1910000
0+
0"
#1915000
b1 f
b111001 M
b111001 ="
0b
1+
1"
#1920000
0+
0"
#1925000
b10 f
1+
1"
